<?xml version="1.0" encoding="UTF-8" standalone="no"?>
<svg xmlns:dc="http://purl.org/dc/elements/1.1/" xmlns:cc="http://creativecommons.org/ns#" xmlns:rdf="http://www.w3.org/1999/02/22-rdf-syntax-ns#" xmlns:svg="http://www.w3.org/2000/svg" xmlns="http://www.w3.org/2000/svg" xmlns:sodipodi="http://sodipodi.sourceforge.net/DTD/sodipodi-0.dtd" xmlns:inkscape="http://www.inkscape.org/namespaces/inkscape" id="svg1" width="16" height="16" version="1.1" sodipodi:docname="document-export-ocal-symbolic.svg" inkscape:version="0.92.4 (33fec40d5, 2019-01-16)">
<metadata id="metadata168664">
<rdf:RDF>
<cc:Work rdf:about="">
<dc:format>image/svg+xml</dc:format>
<dc:type rdf:resource="http://purl.org/dc/dcmitype/StillImage" />
<dc:title></dc:title>
</cc:Work>
</rdf:RDF>
</metadata>
<sodipodi:namedview id="base" showgrid="true" inkscape:snap-global="false" inkscape:zoom="13.68789" inkscape:cx="7.037103" inkscape:cy="19.82135" inkscape:window-width="1280" inkscape:window-height="987" inkscape:window-x="1280" inkscape:window-y="0" inkscape:window-maximized="1" inkscape:current-layer="svg1">
<inkscape:grid id="GridFromPre046Settings" type="xygrid" originx="0pt" originy="0pt" spacingx="1pt" spacingy="1pt" color="#3f3fff" empcolor="#3f3fff" opacity="0.15" empopacity="0.38" empspacing="5" />
</sodipodi:namedview>
<defs id="defs3" />
<path style="fill:#000000;fill-rule:evenodd;stroke-width:0.5096729" sodipodi:nodetypes="cccccccc" inkscape:connector-curvature="0" id="use5366" d="M 1.344421,7.680067 H 3.08881 V 6.616734 L 4.287019,8.242747 3.08881,9.868759 c 0,0 0,-0.578062 0,-1.097342 H 1.344421 Z" />
<path style="color:#000000;font-style:normal;font-variant:normal;font-weight:normal;font-stretch:normal;font-size:medium;line-height:normal;font-family:sans-serif;font-variant-ligatures:normal;font-variant-position:normal;font-variant-caps:normal;font-variant-numeric:normal;font-variant-alternates:normal;font-feature-settings:normal;text-indent:0;text-align:start;text-decoration:none;text-decoration-line:none;text-decoration-style:solid;text-decoration-color:#000000;letter-spacing:normal;word-spacing:normal;text-transform:none;writing-mode:lr-tb;direction:ltr;text-orientation:mixed;dominant-baseline:auto;baseline-shift:baseline;text-anchor:start;white-space:normal;shape-padding:0;clip-rule:nonzero;display:inline;overflow:visible;visibility:visible;opacity:1;isolation:auto;mix-blend-mode:normal;color-interpolation:sRGB;color-interpolation-filters:linearRGB;solid-color:#000000;solid-opacity:1;vector-effect:none;fill:#000000;fill-opacity:1;fill-rule:evenodd;stroke:none;stroke-width:1.2625726;stroke-linecap:butt;stroke-linejoin:miter;stroke-miterlimit:4;stroke-dasharray:none;stroke-dashoffset:0;stroke-opacity:1;color-rendering:auto;image-rendering:auto;shape-rendering:auto;text-rendering:auto;enable-background:accumulate" d="m 5.971562,1.007061 c -0.763351,0 -1.398211,0.634859 -1.398211,1.398211 V 13.50391 c 0,0.72619 0.576254,1.32801 1.289401,1.38552 v -1.31117 c -0.01322,-0.021 -0.0272,-0.0424 -0.0272,-0.0744 V 2.405272 c 0,-0.08573 0.05029,-0.136014 0.136013,-0.136014 h 7.261265 c 0.0857,0 0.1342,0.05029 0.1342,0.136014 V 13.50391 c 0,0.0109 -0.008,0.0157 -0.009,0.0254 v 1.35832 c 0.70535,-0.0654 1.27127,-0.66309 1.27127,-1.3837 V 2.405272 c 0,-0.763352 -0.63304,-1.398211 -1.39639,-1.398211 z" id="rect215337" inkscape:connector-curvature="0" />
<rect ry="0.8425915" y="2.705405" x="6.269064" height="2.679469" width="6.613881" id="rect219058" style="opacity:1;fill:#000000;fill-opacity:1;fill-rule:evenodd;stroke:none;stroke-width:0.8774451;stroke-miterlimit:4;stroke-dasharray:none;stroke-opacity:1" />
<rect ry="0.8425915" y="5.859718" x="6.269064" height="2.679469" width="6.613881" id="rect219068" style="opacity:1;fill:#000000;fill-opacity:0.5163399;fill-rule:evenodd;stroke:none;stroke-width:0.8774451;stroke-miterlimit:4;stroke-dasharray:none;stroke-opacity:1" />
<rect style="opacity:1;fill:#000000;fill-opacity:0.1830065;fill-rule:evenodd;stroke:none;stroke-width:0.8774451;stroke-miterlimit:4;stroke-dasharray:none;stroke-opacity:1" id="rect219054" width="6.613881" height="2.679469" x="6.269064" y="12.16834" ry="0.8425915" />
<rect ry="0.8425915" y="9.149699" x="6.269064" height="2.679469" width="6.613881" id="rect219060" style="opacity:1;fill:#000000;fill-opacity:0.751634;fill-rule:evenodd;stroke:none;stroke-width:0.8774451;stroke-miterlimit:4;stroke-dasharray:none;stroke-opacity:1" />
</svg>
